29815;000000020133; ;01092020;01092020;0000;00000;00000000000000000;000;Saldo Anterior           ;00000000000000000;C;                                      
29815;000000020133; ;02092020;02092020;1763;71646;00221763002507840;870;Transferência recebida   ;00000000000002000;C;02/09 1763    2507840-2 EMILIA B DE BA
29815;000000020133; ;02092020;02092020;0000;00000;00000000000000002;345;BB RF LP Automático      ;00000000000032000;D;                                      
29815;000000020133; ;02092020;02092020;0000;00000;00000000000000000;999;S A L D O                ;00000000000000000;C;                                      
