29815;20133; ;1092020;1092020;0;0;0;0;Saldo Anterior           ;0;C;
29815;20133; ;2092020;2092020;1763;71646;2,22E+14;870;Transfer?cia recebida   ;2000;C;2507840-2
29815;20133; ;2092020;2092020;0;0;2;345;BB RF LP Autom?ico      ;32000;D;
29815;20133; ;2092020;2092020;0;0;0;999;S A L D O                ;0;C;
;;;;;;;;;;;;
;;;;;;;;;;;;
;;;;;;;;;;;;
;;;;;;;;;;;;
;;;;;;;;;;;;
