Iniciou a montagem do email
Configurou as credenciais : usuario:atendimento@anaplab.com.br senha: Key?Open?@ANAPLAB?#2019#
Adicionou o destinatário : alertas@smartcodesoluces.com.br
Adicionou o assunto : Erro sistema Ceva smSoftclinica - 27/08/2020 / 17:00:35
O e-mail é HTML ? Sim
Adicionou a mensagem : <html><br> <Center> <img src="http://www.smartcodesolucoes.com.br/img/simbolo.jpg" width="37px" height="32px"> <br> <span color=red> Relatório de erros </span> </center> <br><hr><br> Usuário:Master<br> Email:<br> Erro:#42S22Unknown column 'nrseqctrl' in 'field list'<br> Linha do erro: 0<br> Link do help: <br> Página: mensalidades.aspx<br> Expressão: insert into tbmensalidades (nrseqctrl, dtcad, usercad, ativo, mensalidadedeteste,valor,nrseqcliente, mes,ano,statuspg) values ('270820201700351700351','2020/08/27','Importado', true, 'teste',20,nrseqcliente, 1, 2021,1)</html>
E-mail enviado !
Resultado do envio: Enviado
