Iniciou a montagem do email
Configurou a porta : 587
Adicionou o config SMTP : smtp.anaplab.com.br
Configurou as credenciais : usuario:atendimento@anaplab.com.br senha: Key?Open?@ANAPLAB?#2019#
Adicionou o remetente : atendimento@anaplab.com.br
O e-mail é HTML ? Sim
Adicionou o destinatário : felipe.mazete@smartcodesolucoes.com.br
Adicionou o assunto : ANAPLAB - AUTOATENDIMENTO - Senha de acesso
Adicionou a mensagem : <p>Prezado(a) colega  JOSÉ GILVAN PEREIRA REBOUÇAS </p></br><p> Sua senha de acesso ao AUTOATENDIMENTO é sjp21071</p><p> Atenciosamente.</p><p> EQUIPE ANAPLAB</p><p> Data: 2020/08/24</p>
E-mail enviado !
Resultado do envio: Enviado
