Iniciou a montagem do email
Configurou as credenciais : usuario:atendimento@anaplab.com.br senha: Key?Open?@ANAPLAB?#2019#
Adicionou o destinatário : alertas@smartcodesoluces.com.br
Adicionou o assunto : Erro sistema Ceva smSoftclinica - 21/08/2020 / 10:39:58
O e-mail é HTML ? Sim
Adicionou a mensagem : <html><br> <Center> <img src="http://www.smartcodesolucoes.com.br/img/simbolo.jpg" width="37px" height="32px"> <br> <span color=red> Relatório de erros </span> </center> <br><hr><br> Usuário:Master<br> Email:<br> Erro:#42S02Table 'dbanaplabvb.tbareasorigens' doesn't exist<br> Linha do erro: 0<br> Link do help: <br> Página: configuracoes.aspx<br> Expressão: select * from tbareasorigens where ativo = true order by descricao</html>
E-mail enviado !
Resultado do envio: Enviado
