Iniciou a montagem do email
Configurou as credenciais : usuario:atendimento@anaplab.com.br senha: Key?Open?@ANAPLAB?#2019#
Adicionou o destinatário : alertas@smartcodesoluces.com.br
Adicionou o assunto : Erro sistema Ceva smSoftclinica - 05/11/2020 / 14:45:54
O e-mail é HTML ? Sim
Adicionou a mensagem : <html><br> <Center> <img src="http://www.smartcodesolucoes.com.br/img/simbolo.jpg" width="37px" height="32px"> <br> <span color=red> Relatório de erros </span> </center> <br><hr><br> Usuário:teste<br> Email:<br> Erro:#42S22Unknown column 'tbmensalidade_joiasstatuspg' in 'where clause'<br> Linha do erro: 0<br> Link do help: <br> Página: relatoriojoias.aspx<br> Expressão: select * from tbmensalidade_joias inner join tbAssociados on tbmensalidade_joias.nrsequser = tbAssociados.nrseq where tbmensalidade_joias.ativo = true   and tbmensalidade_joias.mes = '10' and tbmensalidade_joias.ano = '2019' and tbmensalidade_joiasstatuspg =  '1'  order by ano,mes asc   </html>
E-mail não enviado ! (Sequência de comandos incorreta. A resposta do servidor foi: 5.0.3 <200-225-171-187.user3p.brasiltelecom.net.br[200.225.171.187]>: Client host rejected: Para envio de mensagens e necessaria autenticacao. Para saber como corrigir este erro acesse: https://ajuda.locaweb.com.br/wiki/configuracao-de-outlook-e-mail-locaweb /This mail server requires authentication)
Apresentou erro :
Resultado do envio: Não enviado:Sequência de comandos incorreta. A resposta do servidor foi: 5.0.3 <200-225-171-187.user3p.brasiltelecom.net.br[200.225.171.187]>: Client host rejected: Para envio de mensagens e necessaria autenticacao. Para saber como corrigir este erro acesse: https://ajuda.locaweb.com.br/wiki/configuracao-de-outlook-e-mail-locaweb /This mail server requires authentication
